^D:\STUDIUM\7. SEMESTER\BACHELORARBEIT\FLUIDSIMULATOR\FLUIDSIMULATOR\WINDOW.H
D:\STUDIUM\7. SEMESTER\BACHELORARBEIT\FLUIDSIMULATOR\FLUIDSIMULATOR\GENERATEDFILES\RELEASE\MOC_WINDOW.CPP
^D:\STUDIUM\7. SEMESTER\BACHELORARBEIT\FLUIDSIMULATOR\FLUIDSIMULATOR\WINDOW.UI
D:\STUDIUM\7. SEMESTER\BACHELORARBEIT\FLUIDSIMULATOR\FLUIDSIMULATOR\GENERATEDFILES\UI_WINDOW.H
^D:\STUDIUM\7. SEMESTER\BACHELORARBEIT\FLUIDSIMULATOR\FLUIDSIMULATOR\GLWIDGET.H
D:\STUDIUM\7. SEMESTER\BACHELORARBEIT\FLUIDSIMULATOR\FLUIDSIMULATOR\GENERATEDFILES\RELEASE\MOC_GLWIDGET.CPP
^D:\STUDIUM\7. SEMESTER\BACHELORARBEIT\FLUIDSIMULATOR\FLUIDSIMULATOR\WINDOW.QRC
D:\STUDIUM\7. SEMESTER\BACHELORARBEIT\FLUIDSIMULATOR\FLUIDSIMULATOR\GENERATEDFILES\QRC_WINDOW.CPP
