^D:\STUDIUM\7. SEMESTER\BACHELORARBEIT\FLUIDSIMULATOR\FLUIDSIMULATOR\WINDOW.H
"D:\Qt\Qt5.5.1\5.5\msvc2013\bin\moc.exe"  "D:\Studium\7. Semester\Bachelorarbeit\FluidSimulator\FluidSimulator\window.h" -o ".\GeneratedFiles\Release\moc_window.cpp"  -DUNICODE -DWIN32 -DWIN64 -DQT_DLL -DQT_NO_DEBUG -DNDEBUG -DQT_CORE_LIB -DQT_GUI_LIB -DQT_OPENGL_LIB -DQT_WIDGETS_LIB "-I.\GeneratedFiles" "-I." "-ID:\Qt\Qt5.5.1\5.5\msvc2013\include" "-I.\GeneratedFiles\Release\." "-ID:\Qt\Qt5.5.1\5.5\msvc2013\include\QtCore" "-ID:\Qt\Qt5.5.1\5.5\msvc2013\include\QtGui" "-ID:\Qt\Qt5.5.1\5.5\msvc2013\include\QtOpenGL" "-ID:\Qt\Qt5.5.1\5.5\msvc2013\include\QtWidgets"
^D:\STUDIUM\7. SEMESTER\BACHELORARBEIT\FLUIDSIMULATOR\FLUIDSIMULATOR\WINDOW.UI
"D:\Qt\Qt5.5.1\5.5\msvc2013\bin\uic.exe" -o ".\GeneratedFiles\ui_window.h" "D:\Studium\7. Semester\Bachelorarbeit\FluidSimulator\FluidSimulator\window.ui"
^D:\STUDIUM\7. SEMESTER\BACHELORARBEIT\FLUIDSIMULATOR\FLUIDSIMULATOR\GLWIDGET.H
"D:\Qt\Qt5.5.1\5.5\msvc2013\bin\moc.exe"  "D:\Studium\7. Semester\Bachelorarbeit\FluidSimulator\FluidSimulator\glwidget.h" -o ".\GeneratedFiles\Release\moc_glwidget.cpp"  -DUNICODE -DWIN32 -DWIN64 -DQT_DLL -DQT_NO_DEBUG -DNDEBUG -DQT_CORE_LIB -DQT_GUI_LIB -DQT_OPENGL_LIB -DQT_WIDGETS_LIB "-I.\GeneratedFiles" "-I." "-ID:\Qt\Qt5.5.1\5.5\msvc2013\include" "-I.\GeneratedFiles\Release\." "-ID:\Qt\Qt5.5.1\5.5\msvc2013\include\QtCore" "-ID:\Qt\Qt5.5.1\5.5\msvc2013\include\QtGui" "-ID:\Qt\Qt5.5.1\5.5\msvc2013\include\QtOpenGL" "-ID:\Qt\Qt5.5.1\5.5\msvc2013\include\QtWidgets"
^D:\STUDIUM\7. SEMESTER\BACHELORARBEIT\FLUIDSIMULATOR\FLUIDSIMULATOR\WINDOW.QRC
"D:\Qt\Qt5.5.1\5.5\msvc2013\bin\rcc.exe" -name "window" -no-compress "D:\Studium\7. Semester\Bachelorarbeit\FluidSimulator\FluidSimulator\window.qrc" -o .\GeneratedFiles\qrc_window.cpp
