^D:\STUDIUM\7. SEMESTER\BACHELORARBEIT\FLUIDSIMULATOR\FLUIDSIMULATOR\RELEASE\GLWIDGET.OBJ|D:\STUDIUM\7. SEMESTER\BACHELORARBEIT\FLUIDSIMULATOR\FLUIDSIMULATOR\RELEASE\MAIN.OBJ|D:\STUDIUM\7. SEMESTER\BACHELORARBEIT\FLUIDSIMULATOR\FLUIDSIMULATOR\RELEASE\MOC_GLWIDGET.OBJ|D:\STUDIUM\7. SEMESTER\BACHELORARBEIT\FLUIDSIMULATOR\FLUIDSIMULATOR\RELEASE\MOC_WINDOW.OBJ|D:\STUDIUM\7. SEMESTER\BACHELORARBEIT\FLUIDSIMULATOR\FLUIDSIMULATOR\RELEASE\QRC_WINDOW.OBJ|D:\STUDIUM\7. SEMESTER\BACHELORARBEIT\FLUIDSIMULATOR\FLUIDSIMULATOR\RELEASE\SIMULATION.OBJ|D:\STUDIUM\7. SEMESTER\BACHELORARBEIT\FLUIDSIMULATOR\FLUIDSIMULATOR\RELEASE\WINDOW.OBJ
D:\QT\QT5.5.1\5.5\MSVC2013\LIB\QTMAIN.LIB
D:\QT\QT5.5.1\5.5\MSVC2013\LIB\QT5CORE.LIB
D:\QT\QT5.5.1\5.5\MSVC2013\LIB\QT5GUI.LIB
D:\QT\QT5.5.1\5.5\MSVC2013\LIB\QT5OPENGL.LIB
C:\PROGRAM FILES (X86)\WINDOWS KITS\8.1\LIB\WINV6.3\UM\X86\OPENGL32.LIB
C:\PROGRAM FILES (X86)\WINDOWS KITS\8.1\LIB\WINV6.3\UM\X86\GLU32.LIB
D:\QT\QT5.5.1\5.5\MSVC2013\LIB\QT5WIDGETS.LIB
C:\PROGRAM FILES (X86)\WINDOWS KITS\8.1\LIB\WINV6.3\UM\X86\KERNEL32.LIB
C:\PROGRAM FILES (X86)\WINDOWS KITS\8.1\LIB\WINV6.3\UM\X86\USER32.LIB
C:\PROGRAM FILES (X86)\WINDOWS KITS\8.1\LIB\WINV6.3\UM\X86\GDI32.LIB
C:\PROGRAM FILES (X86)\WINDOWS KITS\8.1\LIB\WINV6.3\UM\X86\WINSPOOL.LIB
C:\PROGRAM FILES (X86)\WINDOWS KITS\8.1\LIB\WINV6.3\UM\X86\COMDLG32.LIB
C:\PROGRAM FILES (X86)\WINDOWS KITS\8.1\LIB\WINV6.3\UM\X86\ADVAPI32.LIB
C:\PROGRAM FILES (X86)\WINDOWS KITS\8.1\LIB\WINV6.3\UM\X86\SHELL32.LIB
C:\PROGRAM FILES (X86)\WINDOWS KITS\8.1\LIB\WINV6.3\UM\X86\OLE32.LIB
C:\PROGRAM FILES (X86)\WINDOWS KITS\8.1\LIB\WINV6.3\UM\X86\OLEAUT32.LIB
C:\PROGRAM FILES (X86)\WINDOWS KITS\8.1\LIB\WINV6.3\UM\X86\UUID.LIB
C:\PROGRAM FILES (X86)\WINDOWS KITS\8.1\LIB\WINV6.3\UM\X86\ODBC32.LIB
C:\PROGRAM FILES (X86)\WINDOWS KITS\8.1\LIB\WINV6.3\UM\X86\ODBCCP32.LIB
D:\STUDIUM\7. SEMESTER\BACHELORARBEIT\FLUIDSIMULATOR\FLUIDSIMULATOR\RELEASE\QRC_WINDOW.OBJ
D:\STUDIUM\7. SEMESTER\BACHELORARBEIT\FLUIDSIMULATOR\FLUIDSIMULATOR\RELEASE\MOC_GLWIDGET.OBJ
D:\STUDIUM\7. SEMESTER\BACHELORARBEIT\FLUIDSIMULATOR\FLUIDSIMULATOR\RELEASE\MOC_WINDOW.OBJ
D:\STUDIUM\7. SEMESTER\BACHELORARBEIT\FLUIDSIMULATOR\FLUIDSIMULATOR\RELEASE\GLWIDGET.OBJ
D:\STUDIUM\7. SEMESTER\BACHELORARBEIT\FLUIDSIMULATOR\FLUIDSIMULATOR\RELEASE\MAIN.OBJ
D:\STUDIUM\7. SEMESTER\BACHELORARBEIT\FLUIDSIMULATOR\FLUIDSIMULATOR\RELEASE\SIMULATION.OBJ
D:\STUDIUM\7. SEMESTER\BACHELORARBEIT\FLUIDSIMULATOR\FLUIDSIMULATOR\RELEASE\WINDOW.OBJ
C:\WINDOWS\GLOBALIZATION\SORTING\SORTDEFAULT.NLS
C:\PROGRAM FILES (X86)\MICROSOFT VISUAL STUDIO 12.0\VC\LIB\MSVCRT.LIB
C:\PROGRAM FILES (X86)\MICROSOFT VISUAL STUDIO 12.0\VC\LIB\OLDNAMES.LIB
C:\PROGRAM FILES (X86)\MICROSOFT VISUAL STUDIO 12.0\VC\LIB\VCOMP.LIB
C:\PROGRAM FILES (X86)\MICROSOFT VISUAL STUDIO 12.0\VC\LIB\MSVCPRT.LIB
C:\PROGRAM FILES (X86)\WINDOWS KITS\8.1\BIN\X86\RC.EXE
C:\PROGRAM FILES (X86)\MICROSOFT VISUAL STUDIO 12.0\VC\BIN\CVTRES.EXE
C:\WINDOWS\SYSTEM32\TZRES.DLL
